…
Winning Percentage

Another variable not included in the game logs dataset that would useful in our analyses is that of winning percentage. Winning percentage is the percentage of games played that resulted in a win for a given team and given season. The following code calculates the winning percentage for each team and year from 2000 to 2016. This code can also be found in the load_and_clean_data.R where the data is saved in win_perc.RData.

load(here::here("dataset", "baseball.RData"))
options(dplyr.summarise.inform = FALSE)

#win/loss column (1 = win, 0 = loss or tie)
h_win_loss <- function(h, v) {
  ifelse(h > v, 1, 0)
}
(baseball <- baseball %>% mutate(h_win_loss = h_win_loss(h_score, v_score)))

## # A tibble: 41,298 × 165
##    year  month day   number_of_g…¹ day_o…² v_name v_lea…³ v_gam…⁴ h_name h_lea…⁵
##    <chr> <chr> <chr>         <dbl> <chr>   <chr>  <chr>     <dbl> <chr>  <chr>  
##  1 2000  03    29                0 Wed     CHN    NL            1 NYN    NL     
##  2 2000  03    30                0 Thu     NYN    NL            2 CHN    NL     
##  3 2000  04    03                0 Mon     COL    NL            1 ATL    NL     
##  4 2000  04    03                0 Mon     MIL    NL            1 CIN    NL     
##  5 2000  04    03                0 Mon     SFN    NL            1 FLO    NL     
##  6 2000  04    03                0 Mon     LAN    NL            1 MON    NL     
##  7 2000  04    03                0 Mon     SDN    NL            1 NYN    NL     
##  8 2000  04    03                0 Mon     CHN    NL            3 SLN    NL     
##  9 2000  04    03                0 Mon     NYA    AL            1 ANA    AL     
## 10 2000  04    03                0 Mon     CLE    AL            1 BAL    AL     
## # … with 41,288 more rows, 155 more variables: h_game_number <dbl>,
## #   v_score <dbl>, h_score <dbl>, length_outs <dbl>, day_night <chr>,
## #   completion <lgl>, forefeit <lgl>, protest <chr>, park_id <chr>,
## #   attendance <dbl>, length_minutes <dbl>, v_line_score <chr>,
## #   h_line_score <chr>, v_at_bats <dbl>, v_hits <dbl>, v_doubles <dbl>,
## #   v_triples <dbl>, v_homeruns <dbl>, v_rbi <dbl>, v_sacrifice_hits <dbl>,
## #   v_sacrifice_flies <dbl>, v_hit_by_pitch <dbl>, v_walks <dbl>, …
…
