…
<script src="{{< blogdown/postref >}}index_files/kePrint/kePrint.js">
<link href="{{< blogdown/postref >}}index_files/lightable/lightable.css" rel="stylesheet" />

Our data set of MLB game statistics is >50mb and can be found in the dataset-ignore folder. After reading in the CSV file, we converted it into a tibble.

suppressPackageStartupMessages(library("kableExtra"))
suppressPackageStartupMessages(library(tidyverse))
suppressWarnings(data <- read_csv(here::here("dataset-ignore", "game_logs.csv"), col_types = cols(forefeit = col_character(), completion = col_character())))
(baseball <- as_tibble(data))

## # A tibble: 171,907 × 161
##       date numbe…¹ day_o…² v_name v_lea…³ v_gam…⁴ h_name h_lea…⁵ h_gam…⁶ v_score
##      <dbl>   <dbl> <chr>   <chr>  <chr>     <dbl> <chr>  <chr>     <dbl>   <dbl>
##  1  1.87e7       0 Thu     CL1    na            1 FW1    na            1       0
##  2  1.87e7       0 Fri     BS1    na            1 WS3    na            1      20
##  3  1.87e7       0 Sat     CL1    na            2 RC1    na            1      12
##  4  1.87e7       0 Mon     CL1    na            3 CH1    na            1      12
##  5  1.87e7       0 Tue     BS1    na            2 TRO    na            1       9
##  6  1.87e7       0 Thu     CH1    na            2 CL1    na            4      18
##  7  1.87e7       0 Sat     WS3    na            2 CL1    na            5      12
##  8  1.87e7       0 Sat     CH1    na            3 FW1    na            2      14
##  9  1.87e7       0 Mon     WS3    na            3 FW1    na            3       6
## 10  1.87e7       0 Tue     TRO    na            2 BS1    na            3      29
## # … with 171,897 more rows, 151 more variables: h_score <dbl>,
## #   length_outs <dbl>, day_night <chr>, completion <chr>, forefeit <chr>,
## #   protest <chr>, park_id <chr>, attendance <dbl>, length_minutes <dbl>,
## #   v_line_score <chr>, h_line_score <chr>, v_at_bats <dbl>, v_hits <dbl>,
## #   v_doubles <dbl>, v_triples <dbl>, v_homeruns <dbl>, v_rbi <dbl>,
## #   v_sacrifice_hits <dbl>, v_sacrifice_flies <dbl>, v_hit_by_pitch <dbl>,
## #   v_walks <dbl>, `v_intentional walks` <dbl>, v_strikeouts <dbl>, …

The date in the data is inserted as an integer, so using separate, we separated the date into three columns: year, month, and day. If we need to combine these, we can easily do so later on using lubridate.

(baseball <- baseball %>% separate(date,into=c("year","month_day"),sep=4) %>% 
             separate(month_day,into=c("month","day"),sep=2))

## # A tibble: 171,907 × 163
##    year  month day   number_of_g…¹ day_o…² v_name v_lea…³ v_gam…⁴ h_name h_lea…⁵
##    <chr> <chr> <chr>         <dbl> <chr>   <chr>  <chr>     <dbl> <chr>  <chr>  
##  1 1871  05    04                0 Thu     CL1    na            1 FW1    na     
##  2 1871  05    05                0 Fri     BS1    na            1 WS3    na     
##  3 1871  05    06                0 Sat     CL1    na            2 RC1    na     
##  4 1871  05    08                0 Mon     CL1    na            3 CH1    na     
##  5 1871  05    09                0 Tue     BS1    na            2 TRO    na     
##  6 1871  05    11                0 Thu     CH1    na            2 CL1    na     
##  7 1871  05    13                0 Sat     WS3    na            2 CL1    na     
##  8 1871  05    13                0 Sat     CH1    na            3 FW1    na     
##  9 1871  05    15                0 Mon     WS3    na            3 FW1    na     
## 10 1871  05    16                0 Tue     TRO    na            2 BS1    na     
## # … with 171,897 more rows, 153 more variables: h_game_number <dbl>,
## #   v_score <dbl>, h_score <dbl>, length_outs <dbl>, day_night <chr>,
## #   completion <chr>, forefeit <chr>, protest <chr>, park_id <chr>,
## #   attendance <dbl>, length_minutes <dbl>, v_line_score <chr>,
## #   h_line_score <chr>, v_at_bats <dbl>, v_hits <dbl>, v_doubles <dbl>,
## #   v_triples <dbl>, v_homeruns <dbl>, v_rbi <dbl>, v_sacrifice_hits <dbl>,
## #   v_sacrifice_flies <dbl>, v_hit_by_pitch <dbl>, v_walks <dbl>, …

Since this is a large dataset, we are considering working with those baseball games that took place between the years 2000 and 2016. Data on games from the 1970s and 1990s are missing so we chose to take a subset of more recent years of baseball. From the earliest years of the dataset, there are many variables with missing data as it might be too far in the past to recover such specific statistics of those games. Additionally, over the centuries of baseball, the rules of the game have changed so taking a subset of only the most recent years would help the data be more consistent.

years<-c(2000,2001,2002,2003,2004,2005,2006,2007,2008,2009,2010,2011,2012,2013,2014,2015,2016)
(baseball <- baseball%>%filter(year %in% years))

## # A tibble: 41,298 × 163
##    year  month day   number_of_g…¹ day_o…² v_name v_lea…³ v_gam…⁴ h_name h_lea…⁵
##    <chr> <chr> <chr>         <dbl> <chr>   <chr>  <chr>     <dbl> <chr>  <chr>  
##  1 2000  03    29                0 Wed     CHN    NL            1 NYN    NL     
##  2 2000  03    30                0 Thu     NYN    NL            2 CHN    NL     
##  3 2000  04    03                0 Mon     COL    NL            1 ATL    NL     
##  4 2000  04    03                0 Mon     MIL    NL            1 CIN    NL     
##  5 2000  04    03                0 Mon     SFN    NL            1 FLO    NL     
##  6 2000  04    03                0 Mon     LAN    NL            1 MON    NL     
##  7 2000  04    03                0 Mon     SDN    NL            1 NYN    NL     
##  8 2000  04    03                0 Mon     CHN    NL            3 SLN    NL     
##  9 2000  04    03                0 Mon     NYA    AL            1 ANA    AL     
## 10 2000  04    03                0 Mon     CLE    AL            1 BAL    AL     
## # … with 41,288 more rows, 153 more variables: h_game_number <dbl>,
## #   v_score <dbl>, h_score <dbl>, length_outs <dbl>, day_night <chr>,
## #   completion <chr>, forefeit <chr>, protest <chr>, park_id <chr>,
## #   attendance <dbl>, length_minutes <dbl>, v_line_score <chr>,
## #   h_line_score <chr>, v_at_bats <dbl>, v_hits <dbl>, v_doubles <dbl>,
## #   v_triples <dbl>, v_homeruns <dbl>, v_rbi <dbl>, v_sacrifice_hits <dbl>,
## #   v_sacrifice_flies <dbl>, v_hit_by_pitch <dbl>, v_walks <dbl>, …

This data set does not specify whether the home team wins or loses, but it does contain information on the home team’s and the away team’s number of runs. Since we are interested in seeing if a team wins or loses, we created a column in the dataset called score_diff, which takes the number of the visiting team’s runs subtracted from the number of the one team’s runs. A positive value represents a win, a negative value represents a loss, and a zero is a tie. The higher absolute values represent a bigger win/loss.

(baseball <- baseball %>% mutate(score_diff=h_score-v_score))

## # A tibble: 41,298 × 164
##    year  month day   number_of_g…¹ day_o…² v_name v_lea…³ v_gam…⁴ h_name h_lea…⁵
##    <chr> <chr> <chr>         <dbl> <chr>   <chr>  <chr>     <dbl> <chr>  <chr>  
##  1 2000  03    29                0 Wed     CHN    NL            1 NYN    NL     
##  2 2000  03    30                0 Thu     NYN    NL            2 CHN    NL     
##  3 2000  04    03                0 Mon     COL    NL            1 ATL    NL     
##  4 2000  04    03                0 Mon     MIL    NL            1 CIN    NL     
##  5 2000  04    03                0 Mon     SFN    NL            1 FLO    NL     
##  6 2000  04    03                0 Mon     LAN    NL            1 MON    NL     
##  7 2000  04    03                0 Mon     SDN    NL            1 NYN    NL     
##  8 2000  04    03                0 Mon     CHN    NL            3 SLN    NL     
##  9 2000  04    03                0 Mon     NYA    AL            1 ANA    AL     
## 10 2000  04    03                0 Mon     CLE    AL            1 BAL    AL     
## # … with 41,288 more rows, 154 more variables: h_game_number <dbl>,
## #   v_score <dbl>, h_score <dbl>, length_outs <dbl>, day_night <chr>,
## #   completion <chr>, forefeit <chr>, protest <chr>, park_id <chr>,
## #   attendance <dbl>, length_minutes <dbl>, v_line_score <chr>,
## #   h_line_score <chr>, v_at_bats <dbl>, v_hits <dbl>, v_doubles <dbl>,
## #   v_triples <dbl>, v_homeruns <dbl>, v_rbi <dbl>, v_sacrifice_hits <dbl>,
## #   v_sacrifice_flies <dbl>, v_hit_by_pitch <dbl>, v_walks <dbl>, …

Some filters we are considering are to filter by home team.

baseball %>% filter(h_name=="BOS")

## # A tibble: 1,377 × 164
##    year  month day   number_of_g…¹ day_o…² v_name v_lea…³ v_gam…⁴ h_name h_lea…⁵
##    <chr> <chr> <chr>         <dbl> <chr>   <chr>  <chr>     <dbl> <chr>  <chr>  
##  1 2000  04    11                0 Tue     MIN    AL            9 BOS    AL     
##  2 2000  04    12                0 Wed     MIN    AL           10 BOS    AL     
##  3 2000  04    13                0 Thu     MIN    AL           11 BOS    AL     
##  4 2000  04    14                0 Fri     OAK    AL           10 BOS    AL     
##  5 2000  04    15                0 Sat     OAK    AL           11 BOS    AL     
##  6 2000  04    16                0 Sun     OAK    AL           12 BOS    AL     
##  7 2000  04    17                0 Mon     OAK    AL           13 BOS    AL     
##  8 2000  05    01                0 Mon     DET    AL           24 BOS    AL     
##  9 2000  05    02                0 Tue     DET    AL           25 BOS    AL     
## 10 2000  05    03                0 Wed     DET    AL           26 BOS    AL     
## # … with 1,367 more rows, 154 more variables: h_game_number <dbl>,
## #   v_score <dbl>, h_score <dbl>, length_outs <dbl>, day_night <chr>,
## #   completion <chr>, forefeit <chr>, protest <chr>, park_id <chr>,
## #   attendance <dbl>, length_minutes <dbl>, v_line_score <chr>,
## #   h_line_score <chr>, v_at_bats <dbl>, v_hits <dbl>, v_doubles <dbl>,
## #   v_triples <dbl>, v_homeruns <dbl>, v_rbi <dbl>, v_sacrifice_hits <dbl>,
## #   v_sacrifice_flies <dbl>, v_hit_by_pitch <dbl>, v_walks <dbl>, …
…
