…
baseball <- as_tibble(data)
years<-c(2013,2014,2015,2016)
(baseball <- baseball %>% separate(date,into=c("year","month_day"),sep=4) %>% 
                          separate(month_day,into=c("month","day"),sep=2) %>% 
                          filter(year %in% years) %>% 
                          mutate(score_diff=h_score-v_score))

## # A tibble: 9,718 × 164
##    year  month day   number_of_g…¹ day_o…² v_name v_lea…³ v_gam…⁴ h_name h_lea…⁵
##    <chr> <chr> <chr>         <dbl> <chr>   <chr>  <chr>     <dbl> <chr>  <chr>  
##  1 2013  03    31                0 Sun     TEX    AL            1 HOU    AL     
##  2 2013  04    01                0 Mon     KCA    AL            1 CHA    AL     
##  3 2013  04    01                0 Mon     DET    AL            1 MIN    AL     
##  4 2013  04    01                0 Mon     BOS    AL            1 NYA    AL     
##  5 2013  04    01                0 Mon     SEA    AL            1 OAK    AL     
##  6 2013  04    01                0 Mon     SLN    NL            1 ARI    NL     
##  7 2013  04    01                0 Mon     PHI    NL            1 ATL    NL     
##  8 2013  04    01                0 Mon     ANA    AL            1 CIN    NL     
##  9 2013  04    01                0 Mon     SFN    NL            1 LAN    NL     
## 10 2013  04    01                0 Mon     COL    NL            1 MIL    NL     
## # … with 9,708 more rows, 154 more variables: h_game_number <dbl>,
## #   v_score <dbl>, h_score <dbl>, length_outs <dbl>, day_night <chr>,
## #   completion <lgl>, forefeit <lgl>, protest <chr>, park_id <chr>,
## #   attendance <dbl>, length_minutes <dbl>, v_line_score <chr>,
## #   h_line_score <chr>, v_at_bats <dbl>, v_hits <dbl>, v_doubles <dbl>,
## #   v_triples <dbl>, v_homeruns <dbl>, v_rbi <dbl>, v_sacrifice_hits <dbl>,
## #   v_sacrifice_flies <dbl>, v_hit_by_pitch <dbl>, v_walks <dbl>, …
…
