…
baseball_years_for_map <- baseball %>% group_by(year) %>% select(year, h_name, h_league)
baseball_years_for_map %>% pivot_wider(names_from = year, values_from = h_league)

## Warning: Values from `h_league` are not uniquely identified; output will contain list-cols.
## * Use `values_fn = list` to suppress this warning.
## * Use `values_fn = {summary_fun}` to summarise duplicates.
## * Use the following dplyr code to identify duplicates.
##   {data} %>%
##     dplyr::group_by(h_name, year) %>%
##     dplyr::summarise(n = dplyr::n(), .groups = "drop") %>%
##     dplyr::filter(n > 1L)

## # A tibble: 32 × 18
##    h_name `2000` `2001` `2002` `2003` `2004` `2005` `2006` `2007` `2008` `2009`
##    <chr>  <list> <list> <list> <list> <list> <list> <list> <list> <list> <list>
##  1 NYN    <chr>  <chr>  <chr>  <chr>  <chr>  <chr>  <chr>  <chr>  <chr>  <chr> 
##  2 CHN    <chr>  <chr>  <chr>  <chr>  <chr>  <chr>  <chr>  <chr>  <chr>  <chr> 
##  3 ATL    <chr>  <chr>  <chr>  <chr>  <chr>  <chr>  <chr>  <chr>  <chr>  <chr> 
##  4 CIN    <chr>  <chr>  <chr>  <chr>  <chr>  <chr>  <chr>  <chr>  <chr>  <chr> 
##  5 FLO    <chr>  <chr>  <chr>  <chr>  <chr>  <chr>  <chr>  <chr>  <chr>  <chr> 
##  6 MON    <chr>  <chr>  <chr>  <chr>  <chr>  <NULL> <NULL> <NULL> <NULL> <NULL>
##  7 SLN    <chr>  <chr>  <chr>  <chr>  <chr>  <chr>  <chr>  <chr>  <chr>  <chr> 
##  8 ANA    <chr>  <chr>  <chr>  <chr>  <chr>  <chr>  <chr>  <chr>  <chr>  <chr> 
##  9 BAL    <chr>  <chr>  <chr>  <chr>  <chr>  <chr>  <chr>  <chr>  <chr>  <chr> 
## 10 MIN    <chr>  <chr>  <chr>  <chr>  <chr>  <chr>  <chr>  <chr>  <chr>  <chr> 
## # … with 22 more rows, and 7 more variables: `2010` <list>, `2011` <list>,
## #   `2012` <list>, `2013` <list>, `2014` <list>, `2015` <list>, `2016` <list>
…
